<svg width="23" height="23" viewBox="0 0 23 23" fill="none" xmlns="http://www.w3.org/2000/svg">
<path d="M22.0468 9.15622C22.0468 8.22382 21.6765 7.32961 21.0171 6.6703C20.3578 6.01099 19.4636 5.6406 18.5312 5.6406C18.1315 5.63869 17.7347 5.70814 17.3593 5.84568V4.46872C17.3587 3.79033 17.1618 3.12661 16.7925 2.5576C16.4231 1.9886 15.8969 1.53863 15.2775 1.26196C14.6581 0.98529 13.9719 0.89374 13.3016 0.998353C12.6313 1.10297 12.0056 1.39927 11.5 1.85154C10.9943 1.39927 10.3686 1.10297 9.69835 0.998353C9.02808 0.89374 8.34185 0.98529 7.72244 1.26196C7.10303 1.53863 6.57689 1.9886 6.20749 2.5576C5.8381 3.12661 5.64122 3.79033 5.6406 4.46872C5.63869 4.86844 5.70814 5.26528 5.84568 5.6406H4.46872C3.79033 5.64122 3.12661 5.8381 2.5576 6.20749C1.9886 6.57689 1.53863 7.10303 1.26196 7.72244C0.98529 8.34185 0.89374 9.02808 0.998353 9.69835C1.10297 10.3686 1.39927 10.9943 1.85154 11.5C1.39927 12.0056 1.10297 12.6313 0.998353 13.3016C0.89374 13.9719 0.98529 14.6581 1.26196 15.2775C1.53863 15.8969 1.9886 16.4231 2.5576 16.7925C3.12661 17.1618 3.79033 17.3587 4.46872 17.3593C4.86844 17.3613 5.26528 17.2918 5.6406 17.1543V18.5312C5.64122 19.2096 5.8381 19.8733 6.20749 20.4423C6.57689 21.0113 7.10303 21.4613 7.72244 21.738C8.34185 22.0147 9.02808 22.1062 9.69835 22.0016C10.3686 21.897 10.9943 21.6007 11.5 21.1484C12.0056 21.6007 12.6313 21.897 13.3016 22.0016C13.9719 22.1062 14.6581 22.0147 15.2775 21.738C15.8969 21.4613 16.4231 21.0113 16.7925 20.4423C17.1618 19.8733 17.3587 19.2096 17.3593 18.5312C17.3613 18.1315 17.2918 17.7347 17.1543 17.3593H18.5312C19.2096 17.3587 19.8733 17.1618 20.4423 16.7925C21.0113 16.4231 21.4613 15.8969 21.738 15.2775C22.0147 14.6581 22.1062 13.9719 22.0016 13.3016C21.897 12.6313 21.6007 12.0056 21.1484 11.5C21.7261 10.8559 22.046 10.0214 22.0468 9.15622ZM18.5312 7.98435C18.842 7.98435 19.1401 8.10781 19.3599 8.32758C19.5796 8.54735 19.7031 8.84542 19.7031 9.15622C19.7031 9.46702 19.5796 9.76509 19.3599 9.98486C19.1401 10.2046 18.842 10.3281 18.5312 10.3281H17.3593V9.15622C17.3593 8.84542 17.4828 8.54735 17.7026 8.32758C17.9224 8.10781 18.2204 7.98435 18.5312 7.98435ZM13.8437 3.29685C14.1545 3.29685 14.4526 3.42031 14.6724 3.64008C14.8921 3.85985 15.0156 4.15792 15.0156 4.46872V9.15622C15.0156 9.46702 14.8921 9.76509 14.6724 9.98486C14.4526 10.2046 14.1545 10.3281 13.8437 10.3281H12.6718V4.46872C12.6718 4.15792 12.7953 3.85985 13.0151 3.64008C13.2349 3.42031 13.5329 3.29685 13.8437 3.29685ZM7.98435 4.46872C7.98435 4.15792 8.10781 3.85985 8.32758 3.64008C8.54735 3.42031 8.84542 3.29685 9.15622 3.29685C9.46702 3.29685 9.76509 3.42031 9.98486 3.64008C10.2046 3.85985 10.3281 4.15792 10.3281 4.46872V5.6406H9.15622C8.84542 5.6406 8.54735 5.51713 8.32758 5.29736C8.10781 5.07759 7.98435 4.77952 7.98435 4.46872ZM4.46872 7.98435H9.15622C9.46702 7.98435 9.76509 8.10781 9.98486 8.32758C10.2046 8.54735 10.3281 8.84542 10.3281 9.15622V10.3281H4.46872C4.15792 10.3281 3.85985 10.2046 3.64008 9.98486C3.42031 9.76509 3.29685 9.46702 3.29685 9.15622C3.29685 8.84542 3.42031 8.54735 3.64008 8.32758C3.85985 8.10781 4.15792 7.98435 4.46872 7.98435ZM4.46872 15.0156C4.15792 15.0156 3.85985 14.8921 3.64008 14.6724C3.42031 14.4526 3.29685 14.1545 3.29685 13.8437C3.29685 13.5329 3.42031 13.2349 3.64008 13.0151C3.85985 12.7953 4.15792 12.6718 4.46872 12.6718H5.6406V13.8437C5.6406 14.1545 5.51713 14.4526 5.29736 14.6724C5.07759 14.8921 4.77952 15.0156 4.46872 15.0156ZM9.15622 19.7031C8.84542 19.7031 8.54735 19.5796 8.32758 19.3599C8.10781 19.1401 7.98435 18.842 7.98435 18.5312V13.8437C7.98435 13.5329 8.10781 13.2349 8.32758 13.0151C8.54735 12.7953 8.84542 12.6718 9.15622 12.6718H10.3281V18.5312C10.3281 18.842 10.2046 19.1401 9.98486 19.3599C9.76509 19.5796 9.46702 19.7031 9.15622 19.7031ZM15.0156 18.5312C15.0156 18.842 14.8921 19.1401 14.6724 19.3599C14.4526 19.5796 14.1545 19.7031 13.8437 19.7031C13.5329 19.7031 13.2349 19.5796 13.0151 19.3599C12.7953 19.1401 12.6718 18.842 12.6718 18.5312V17.3593H13.8437C14.1545 17.3593 14.4526 17.4828 14.6724 17.7026C14.8921 17.9224 15.0156 18.2204 15.0156 18.5312ZM18.5312 15.0156H13.8437C13.5329 15.0156 13.2349 14.8921 13.0151 14.6724C12.7953 14.4526 12.6718 14.1545 12.6718 13.8437V12.6718H18.5312C18.842 12.6718 19.1401 12.7953 19.3599 13.0151C19.5796 13.2349 19.7031 13.5329 19.7031 13.8437C19.7031 14.1545 19.5796 14.4526 19.3599 14.6724C19.1401 14.8921 18.842 15.0156 18.5312 15.0156Z" fill="white"/>
</svg>
